<?xml version="1.0" encoding="utf-8"?>
<!-- Generator: Adobe Illustrator 22.0.1, SVG Export Plug-In . SVG Version: 6.00 Build 0)  -->
<svg version="1.1" id="Layer_1" xmlns="http://www.w3.org/2000/svg" xmlns:xlink="http://www.w3.org/1999/xlink" x="0px" y="0px"
	 viewBox="0 0 245.5 82.7" style="enable-background:new 0 0 245.5 82.7;" xml:space="preserve">
<style type="text/css">
	.st0{fill:#FFFFFF;}
</style>
<path class="st0" d="M18.3,38.8c0.2,0,0.4,0.1,0.8,0.3c0.4,0.1,0.8,0.3,1.3,0.6c0.5,0.3,1,0.6,1.5,0.9c0.5,0.4,1,0.8,1.5,1.2
	c0.5,0.5,0.9,1,1.2,1.6c0.3,0.6,0.5,1.3,0.6,2v0.4c0,0.9-0.2,1.8-0.5,2.7c-0.4,0.9-0.9,1.6-1.5,2.3c-0.7,0.7-1.5,1.3-2.5,1.6
	c-1,0.4-2,0.6-3.1,0.6h-0.3c-1.4,0-2.7-0.4-3.8-1.2c-1.1-0.7-2-1.7-2.5-3c-0.1-0.2-0.1-0.4-0.1-0.7c0-0.3,0.1-0.6,0.2-0.9
	c0.2-0.3,0.4-0.5,0.7-0.6c0.2-0.1,0.4-0.2,0.7-0.2c0.3,0,0.6,0.1,0.9,0.2c0.3,0.2,0.5,0.4,0.6,0.7c0.3,0.7,0.8,1.2,1.4,1.6
	c0.6,0.4,1.3,0.6,2.1,0.6h0.2c1.3,0,2.4-0.4,3.2-1.2c0.8-0.8,1.2-1.7,1.2-2.7v-0.1c0-0.4-0.2-0.9-0.6-1.3c-0.4-0.4-0.8-0.8-1.2-1.1
	c-0.5-0.3-1-0.6-1.5-0.8c-0.5-0.2-0.9-0.4-1.3-0.5c0,0-0.1,0-0.1,0c0,0-0.1,0-0.1,0c-3.3-1.2-5-3.3-5-6.2v-0.3
	c0-0.8,0.2-1.6,0.6-2.3c0.4-0.7,0.9-1.3,1.6-1.8c0.6-0.5,1.3-0.8,2-1.1c0.8-0.3,1.6-0.4,2.4-0.4h0.3c0.6,0,1.3,0.2,2,0.4
	c0.7,0.3,1.3,0.6,1.9,1c0.2,0.2,0.3,0.4,0.5,0.6c0.1,0.2,0.2,0.5,0.2,0.7c0,0.4-0.1,0.8-0.4,1c-0.3,0.4-0.8,0.7-1.3,0.7
	c-0.2,0-0.3,0-0.5-0.1c-0.2-0.1-0.3-0.1-0.5-0.2c-0.3-0.2-0.6-0.4-0.9-0.5c-0.4-0.1-0.7-0.2-1-0.2h-0.2c-0.9,0-1.7,0.2-2.3,0.7
	c-0.6,0.5-1,1-1,1.7v0.1c0,0.5,0.1,0.9,0.2,1.2c0.2,0.3,0.4,0.6,0.6,0.8c0.3,0.2,0.6,0.4,0.9,0.6C17.6,38.4,17.9,38.6,18.3,38.8
	L18.3,38.8z M55,50.3c0.1,0.2,0.2,0.3,0.3,0.5c0.1,0.2,0.1,0.4,0.1,0.6c0,0.4-0.2,0.8-0.5,1.1c-0.3,0.3-0.7,0.5-1.2,0.5
	c-0.2,0-0.4,0-0.6-0.1c-0.2-0.1-0.4-0.2-0.6-0.4l-9.1-10v8.9c0,0.4-0.2,0.8-0.5,1.1c-0.3,0.3-0.7,0.5-1.2,0.5
	c-0.4,0-0.8-0.2-1.2-0.5c-0.3-0.3-0.5-0.7-0.5-1.1V31.3c0-0.4,0.2-0.8,0.5-1.1c0.3-0.3,0.7-0.5,1.2-0.5c0.5,0,0.9,0.2,1.2,0.5
	c0.3,0.3,0.5,0.7,0.5,1.1v8.9l9.1-10c0.2-0.2,0.4-0.3,0.6-0.4c0.2-0.1,0.4-0.2,0.6-0.2c0.5,0,0.9,0.2,1.2,0.5
	c0.3,0.3,0.5,0.7,0.5,1.1c0,0.4-0.1,0.8-0.4,1.1l-8.1,8.9L55,50.3z M86.8,30c0.5,0.4,0.7,0.8,0.7,1.3c0,0.4-0.1,0.7-0.3,1l-6.7,9.6
	v9.5c0,0.4-0.2,0.8-0.5,1.1S79.3,53,78.9,53c-0.4,0-0.8-0.2-1.1-0.5c-0.3-0.3-0.5-0.7-0.5-1.1v-9.5l-6.7-9.6
	c-0.2-0.3-0.3-0.5-0.3-0.8c0-0.4,0.1-0.8,0.4-1.2c0.3-0.4,0.7-0.5,1.2-0.5c0.6,0,1,0.2,1.4,0.7l5.6,8l5.7-8c0.4-0.5,0.8-0.7,1.4-0.7
	C86.3,29.7,86.6,29.8,86.8,30z M130.2,29.8c0.3,0.1,0.6,0.3,0.8,0.6c0.2,0.3,0.3,0.6,0.3,0.9c0,0.3,0,0.5-0.1,0.6l-8.4,20
	c-0.1,0.3-0.3,0.6-0.6,0.7c-0.3,0.2-0.6,0.3-0.9,0.3c-0.8,0-1.3-0.3-1.6-1l-2.9-7.1l-3,7.1c-0.1,0.3-0.3,0.6-0.6,0.7
	c-0.3,0.2-0.6,0.3-0.9,0.3c-0.3,0-0.6-0.1-0.9-0.3c-0.3-0.2-0.5-0.4-0.6-0.7l-8.4-20c-0.1-0.2-0.1-0.4-0.1-0.6
	c0-0.4,0.2-0.8,0.5-1.1c0.3-0.3,0.7-0.5,1.2-0.5c0.3,0,0.6,0.1,0.9,0.3c0.3,0.2,0.5,0.4,0.6,0.7l6.8,16.3l2.7-6.5l-3.6-8.6
	c-0.1-0.2-0.1-0.4-0.1-0.7c0-0.4,0.2-0.8,0.5-1.1c0.3-0.3,0.7-0.5,1.2-0.5c0.8,0,1.3,0.3,1.5,1l2.3,5.6l2.3-5.6
	c0.1-0.3,0.3-0.6,0.6-0.7c0.3-0.2,0.6-0.3,0.9-0.3c0.5,0,0.9,0.2,1.2,0.5c0.3,0.3,0.5,0.7,0.5,1.1c0,0.3,0,0.5-0.1,0.6l-3.6,8.6
	l2.7,6.5l6.8-16.3c0.1-0.3,0.3-0.6,0.6-0.7c0.3-0.2,0.6-0.3,0.9-0.3C129.8,29.7,130,29.7,130.2,29.8z M154.5,53
	c-1.5,0-3-0.3-4.3-0.9c-1.4-0.6-2.5-1.4-3.5-2.5c-1-1.1-1.8-2.3-2.4-3.7c-0.6-1.4-0.9-2.9-0.9-4.5c0-1.6,0.3-3.1,0.9-4.5
	c0.6-1.4,1.4-2.6,2.4-3.7c1-1.1,2.2-1.9,3.5-2.5c1.4-0.6,2.8-0.9,4.3-0.9c1.5,0,3,0.3,4.3,0.9c1.4,0.6,2.5,1.4,3.5,2.5
	c1,1.1,1.8,2.3,2.4,3.7c0.6,1.4,0.9,2.9,0.9,4.5c0,1.6-0.3,3.1-0.9,4.5c-0.6,1.4-1.4,2.7-2.4,3.7c-1,1.1-2.2,1.9-3.5,2.5
	C157.5,52.7,156,53,154.5,53z M154.5,33c-1.1,0-2.1,0.2-3,0.6c-0.9,0.4-1.8,1-2.5,1.8c-0.7,0.8-1.3,1.6-1.7,2.6
	c-0.4,1-0.6,2.1-0.6,3.2c0,1.2,0.2,2.2,0.6,3.2c0.4,1,1,1.9,1.7,2.6c0.7,0.8,1.5,1.3,2.5,1.8c0.9,0.4,2,0.6,3,0.6
	c1.1,0,2.1-0.2,3-0.6c0.9-0.4,1.8-1,2.5-1.8c0.7-0.8,1.3-1.6,1.7-2.6c0.4-1,0.6-2.1,0.6-3.2c0-1.2-0.2-2.2-0.6-3.2
	c-0.4-1-1-1.9-1.7-2.6c-0.7-0.8-1.5-1.3-2.5-1.8C156.6,33.3,155.6,33,154.5,33z M191.5,53c-1.5,0-3-0.3-4.3-0.9
	c-1.4-0.6-2.5-1.4-3.5-2.5c-1-1.1-1.8-2.3-2.4-3.7c-0.6-1.4-0.9-2.9-0.9-4.5c0-1.6,0.3-3.1,0.9-4.5c0.6-1.4,1.4-2.6,2.4-3.7
	c1-1.1,2.2-1.9,3.5-2.5c1.4-0.6,2.8-0.9,4.3-0.9c1.5,0,3,0.3,4.3,0.9c1.4,0.6,2.5,1.4,3.5,2.5c1,1.1,1.8,2.3,2.4,3.7
	c0.6,1.4,0.9,2.9,0.9,4.5c0,1.6-0.3,3.1-0.9,4.5c-0.6,1.4-1.4,2.7-2.4,3.7c-1,1.1-2.2,1.9-3.5,2.5C194.4,52.7,193,53,191.5,53z
	 M191.5,33c-1.1,0-2.1,0.2-3,0.6c-0.9,0.4-1.8,1-2.5,1.8c-0.7,0.8-1.3,1.6-1.7,2.6c-0.4,1-0.6,2.1-0.6,3.2c0,1.2,0.2,2.2,0.6,3.2
	c0.4,1,1,1.9,1.7,2.6c0.7,0.8,1.5,1.3,2.5,1.8c0.9,0.4,2,0.6,3,0.6c1.1,0,2.1-0.2,3-0.6c0.9-0.4,1.8-1,2.5-1.8
	c0.7-0.8,1.3-1.6,1.7-2.6c0.4-1,0.6-2.1,0.6-3.2c0-1.2-0.2-2.2-0.6-3.2c-0.4-1-1-1.9-1.7-2.6c-0.7-0.8-1.5-1.3-2.5-1.8
	C193.6,33.3,192.5,33,191.5,33z M218.9,53c-0.4,0-0.8-0.2-1.1-0.5c-0.3-0.3-0.5-0.7-0.5-1.1V31.3c0-0.4,0.2-0.8,0.5-1.1
	c0.3-0.3,0.7-0.5,1.1-0.5h5.8c0,0,0.3,0,0.8,0.1c0.5,0,1.1,0.2,1.8,0.4c0.7,0.2,1.5,0.5,2.4,1c0.8,0.5,1.6,1.1,2.3,2
	c0.7,0.9,1.3,2,1.8,3.3c0.5,1.3,0.7,3,0.7,4.9s-0.2,3.6-0.7,4.9c-0.5,1.3-1.1,2.4-1.8,3.3c-0.7,0.9-1.5,1.5-2.3,2
	c-0.8,0.5-1.6,0.8-2.4,1c-0.7,0.2-1.3,0.3-1.8,0.4c-0.5,0-0.8,0-0.8,0H218.9z M220.6,49.7h4.1c0,0,0.1,0,0.4,0
	c0.2,0,0.5-0.1,0.8-0.1c0.3-0.1,0.7-0.2,1-0.3c0.4-0.1,0.8-0.3,1.2-0.6c1-0.7,1.8-1.6,2.3-2.8c0.5-1.2,0.8-2.7,0.8-4.4
	c0-1.8-0.3-3.2-0.8-4.5c-0.6-1.2-1.4-2.2-2.4-2.8c-0.4-0.2-0.8-0.4-1.1-0.5c-0.4-0.1-0.7-0.2-1-0.3c-0.3-0.1-0.7-0.1-1.1-0.2h-4.1
	V49.7z"/>
</svg>
